<svg width="6" height="9" viewBox="0 0 6 9" fill="none" xmlns="http://www.w3.org/2000/svg">
<path fill-rule="evenodd" clip-rule="evenodd" d="M5.48244 5.07578C5.4537 5.12071 5.4197 5.16323 5.38044 5.20249L2.13879 8.44415C1.8459 8.73704 1.37102 8.73704 1.07813 8.44415C0.785236 8.15126 0.785236 7.67638 1.07813 7.38349L3.9968 4.46482L1.28124 1.74926C0.988347 1.45637 0.988347 0.981495 1.28124 0.688602C1.57413 0.395709 2.04901 0.395709 2.3419 0.688602L5.58356 3.93026C5.87645 4.22315 5.87645 4.69802 5.58355 4.99092C5.55183 5.02264 5.51797 5.05093 5.48244 5.07578Z" fill="#FFB608"/>
</svg>
