<svg width="19" height="22" viewBox="0 0 19 22" fill="none" xmlns="http://www.w3.org/2000/svg">
<path d="M17.2372 0C18.4947 0 18.9588 0.464113 18.9588 1.72228V16.904C18.9588 17.0464 18.9531 17.1787 18.9405 17.3012C18.9119 17.5758 18.9065 17.842 18.651 18.1449C18.6261 18.1746 18.3654 18.3687 18.3654 18.3687C18.2251 18.4375 18.1293 18.4881 17.9711 18.5518L10.3311 21.7527C9.93446 21.9345 9.7686 22.0054 9.48053 21.9997C9.48014 21.9997 9.47979 21.9997 9.4794 21.9997C9.47901 21.9997 9.47866 21.9997 9.47827 21.9997C9.1902 22.0054 9.02435 21.9345 8.62773 21.7527L0.987717 18.5518C0.829524 18.4881 0.73374 18.4375 0.593475 18.3687C0.593475 18.3687 0.332715 18.1746 0.307755 18.1449C0.0523405 17.842 0.0469568 17.5758 0.0183258 17.3012C0.00574881 17.1787 0 17.0464 0 16.904V1.72228C0 0.464113 0.464112 0 1.72169 0L17.2372 0ZM16.1979 15.2633L16.2014 15.2248V15.1862V15.1792V15.1407L16.1979 15.1022L16.1944 15.0672L16.1874 15.0322L16.1804 14.9971L16.1734 14.9656L16.1631 14.9341L16.1526 14.9026L16.1386 14.8746L16.1211 14.843L16.1038 14.815L16.0828 14.7835L16.062 14.7555L16.0375 14.731L16.0132 14.703L15.9852 14.6785L15.9574 14.6539L15.9295 14.6364L15.9015 14.6154L15.8737 14.5979L15.8424 14.5804L15.8109 14.5629L15.776 14.5454L15.7412 14.5314L15.7064 14.5139L15.6679 14.5001L15.6366 14.4896L15.6053 14.4791L15.5703 14.4686L15.539 14.458L15.5042 14.4475L15.4693 14.437L15.4343 14.43L15.396 14.4195L15.3612 14.409L15.3229 14.402L15.2846 14.3915L15.2463 14.381L15.2077 14.3705L15.1729 14.3635L15.1416 14.353L15.1101 14.346L15.0823 14.3355L15.0545 14.3285L15.0126 14.3145L14.9741 14.3005L14.9393 14.2865L14.9115 14.269L14.88 14.2515L14.8557 14.2269L14.8417 14.2059L14.8244 14.1674L14.8209 14.1219V14.1149L14.8244 14.0799L14.8382 14.0483L14.8592 14.0168L14.8905 13.9888L14.915 13.9748L14.9429 13.9608L14.9741 13.9538L15.0092 13.9467L15.0475 13.9398H15.0893H15.1241L15.1554 13.9433L15.1905 13.9467L15.2253 13.9503L15.2601 13.9573L15.2949 13.9643L15.3299 13.9713L15.3647 13.9818L15.3995 13.9923L15.4379 14.0028L15.4659 14.0168L15.4972 14.0273L15.525 14.0413L15.5565 14.0553L15.5843 14.0693L15.6156 14.0833L15.6436 14.1009L15.6749 14.1149L15.7029 14.1359L15.7308 14.1534L15.7621 14.1709L15.7901 14.1919L15.8109 14.1639L15.8284 14.1359L15.8492 14.1079L15.8702 14.0799L15.891 14.0483L15.9085 14.0203L15.9295 13.9923L15.9504 13.9643L15.9678 13.9363L15.9886 13.9083L16.0097 13.8802L16.0272 13.8522L16.048 13.8207L16.069 13.7927L16.0898 13.7647L16.1073 13.7367L16.1281 13.7086L16.1003 13.6877L16.0725 13.6666L16.0445 13.6456L16.0167 13.6281L15.9852 13.6071L15.9574 13.5896L15.926 13.5721L15.8945 13.5546L15.8667 13.5406L15.8354 13.5231L15.8004 13.509L15.7691 13.495L15.7378 13.481L15.7064 13.4705L15.6714 13.4565L15.6401 13.4495L15.6088 13.439L15.5738 13.4285L15.5425 13.4215L15.5077 13.4145L15.4729 13.4075L15.4413 13.4005L15.4065 13.3935L15.3682 13.39L15.3334 13.383L15.2949 13.3795H15.2601L15.2217 13.376L15.1834 13.3725H15.1451H15.1068H15.0683H15.0335L14.9987 13.376L14.9639 13.3795L14.9288 13.383L14.894 13.3865L14.8627 13.3935L14.8279 13.4005L14.7964 13.4075L14.765 13.4145L14.7372 13.4215L14.7057 13.432L14.6709 13.446L14.6361 13.4565L14.6046 13.4705L14.5733 13.488L14.542 13.502L14.5105 13.5195L14.4827 13.537L14.4548 13.5581L14.4268 13.5791L14.4025 13.5966L14.3745 13.6211L14.3502 13.6491L14.3257 13.6736L14.3014 13.7016L14.2803 13.7296L14.2595 13.7577L14.2421 13.7892L14.2247 13.8207L14.2108 13.8522L14.1967 13.8837L14.1829 13.9153L14.1759 13.9467L14.1654 13.9783L14.1584 14.0098L14.1514 14.0413L14.1479 14.0763L14.1444 14.1079L14.1409 14.1429V14.1779V14.1849V14.2234L14.1444 14.2619L14.1479 14.297L14.1514 14.332L14.1584 14.3635L14.1654 14.3985L14.1759 14.4265L14.1862 14.458L14.1967 14.4861L14.2108 14.5104L14.2282 14.5419L14.2455 14.5699L14.2631 14.5944L14.2839 14.6189L14.3049 14.6434L14.3292 14.668L14.3537 14.6924L14.378 14.7135L14.406 14.731L14.4338 14.752L14.4651 14.7695L14.4931 14.787L14.528 14.8045L14.5593 14.822L14.5943 14.836L14.6291 14.85L14.6639 14.864L14.7022 14.8781L14.7338 14.8886L14.765 14.8991L14.7964 14.9096L14.8312 14.9166L14.8627 14.9271L14.8975 14.9376L14.9323 14.9446L14.9673 14.9551L15.0022 14.9621L15.0405 14.9726L15.0753 14.9796L15.1136 14.9901L15.1486 14.9971L15.1834 15.0076L15.2148 15.0146L15.2463 15.0252L15.274 15.0322L15.2984 15.0392L15.3402 15.0566L15.3752 15.0707L15.4065 15.0847L15.4343 15.0987L15.4624 15.1197L15.4866 15.1407L15.5042 15.1652L15.5182 15.2002L15.5217 15.2423V15.2492L15.5182 15.2843L15.5077 15.3158L15.4936 15.3438L15.4729 15.3683L15.4449 15.3894L15.4205 15.4033L15.3925 15.4138L15.3612 15.4208L15.3299 15.4279L15.2949 15.4349L15.2565 15.4383H15.2148H15.1799L15.1416 15.4349H15.1068L15.0718 15.4279L15.0335 15.4244L14.9987 15.4174L14.9639 15.4104L14.9288 15.4033L14.8975 15.3928L14.8627 15.3823L14.8279 15.3718L14.7964 15.3578L14.765 15.3473L14.7338 15.3333L14.7022 15.3193L14.6709 15.3053L14.6431 15.2878L14.6116 15.2738L14.5838 15.2562L14.5525 15.2353L14.5245 15.2178L14.4931 15.1968L14.4651 15.1757L14.4338 15.1547L14.406 15.1337L14.385 15.1617L14.3607 15.1862L14.3397 15.2143L14.3154 15.2423L14.2944 15.2667L14.2736 15.2948L14.2491 15.3228L14.2282 15.3473L14.2037 15.3753L14.1829 15.3998L14.1584 15.4279L14.1376 15.4559L14.1166 15.4804L14.0923 15.5084L14.0713 15.5364L14.047 15.5609L14.026 15.589L14.0538 15.6134L14.0782 15.6345L14.1061 15.6555L14.1341 15.6765L14.1619 15.6975L14.1897 15.7185L14.2177 15.736L14.2455 15.7535L14.2771 15.7711L14.3049 15.7885L14.3362 15.8061L14.3677 15.8201L14.399 15.8373L14.4303 15.8514L14.4618 15.8654L14.4967 15.8794L14.528 15.8899L14.5628 15.9004L14.5943 15.9144L14.6291 15.9249L14.6639 15.9354L14.6953 15.9424L14.7302 15.9529L14.765 15.9599L14.7999 15.9669L14.8347 15.9739L14.8697 15.9809L14.9045 15.9844L14.9393 15.9914L14.9777 15.9949L15.0126 15.9985L15.0475 16.002H15.0858L15.1206 16.0055H15.1554H15.1939H15.2323H15.2671L15.3019 16.002L15.3402 15.9985L15.3752 15.9949L15.4065 15.9914L15.4413 15.988L15.4764 15.9809L15.5077 15.9739L15.539 15.9669L15.5738 15.9599L15.6053 15.9494L15.6401 15.9389L15.6749 15.9284L15.7097 15.9144L15.7448 15.9004L15.776 15.8829L15.8074 15.8689L15.8389 15.8514L15.8667 15.8303L15.8945 15.8131L15.9225 15.7921L15.9469 15.7711L15.9748 15.7465L15.9956 15.7255L16.0202 15.701L16.041 15.6765L16.0585 15.6485L16.0793 15.6205L16.0968 15.5924L16.1143 15.5644L16.1281 15.5329L16.1421 15.5049L16.1561 15.4734L16.1666 15.4383L16.1734 15.4068L16.1839 15.3718L16.1909 15.3368L16.1944 15.2983L16.1979 15.2633ZM13.753 15.9635H13.7878V15.9284V15.8969V15.8619V15.8269V15.7921V15.7605V15.7255V15.6905V15.659V15.624V15.589V15.5574V15.5224V15.4874V15.4524V15.4208V15.3858H13.753H13.718H13.6832H13.6484H13.6136H13.5786H13.5437H13.509H13.4741H13.4356H13.4008H13.366H13.3312H13.2961H13.2614H13.2265H13.1917H13.1567H13.1219H13.0871H13.0523H13.0174H12.9824H12.9476H12.9128H12.878H12.8429H12.8081H12.7733H12.735H12.7H12.6652H12.6304H12.5956H12.5606H12.5257H12.4909H12.4561H12.4211V15.3508V15.3123V15.2773V15.2423V15.2037V15.1687V15.1337V15.0952V15.0602V15.0252V14.9866V14.9516H12.4561H12.4909H12.5257H12.5606H12.5956H12.6304H12.6652H12.7H12.7315H12.7663H12.8011H12.8359H12.871H12.9058H12.9406H12.9754H13.0104H13.0452H13.0801H13.1149H13.1499H13.1847H13.2195H13.2544H13.2894H13.3242H13.3555H13.3903H13.4253H13.4601H13.4949H13.5297H13.5647H13.5996H13.6344V14.9166V14.8851V14.85V14.815V14.7835V14.7485V14.7135V14.6785V14.6469V14.6119V14.5769V14.5454V14.5104V14.4755V14.444V14.409H13.5996H13.5647H13.5297H13.4949H13.4601H13.4253H13.3903H13.3555H13.3242H13.2894H13.2544H13.2195H13.1847H13.1499H13.1149H13.0801H13.0452H13.0104H12.9754H12.9406H12.9058H12.871H12.8359H12.8011H12.7663H12.7315H12.7H12.6652H12.6304H12.5956H12.5606H12.5257H12.4909H12.4561H12.4211V14.374V14.339V14.304V14.269V14.2339V14.1989V14.1674V14.1324V14.0973V14.0623V14.0273V13.9923H12.4561H12.4909H12.5257H12.5606H12.5956H12.6304H12.6617H12.6965H12.7315H12.7663H12.8011H12.8359H12.871H12.9058H12.9406H12.9754H13.0104H13.0452H13.0801H13.1114H13.1464H13.1812H13.216H13.2508H13.2858H13.3206H13.3555H13.3903H13.4253H13.4601H13.4949H13.5297H13.5612H13.5961H13.6309H13.6657H13.7007H13.7355H13.7703V13.9573V13.9258V13.8907V13.8557V13.8207V13.7892V13.7542V13.7191V13.6877V13.6526V13.6176V13.5861V13.5511V13.516V13.481V13.4495V13.4145H13.7355H13.7007H13.6657H13.6309H13.5961H13.5612H13.5262H13.4914H13.4566H13.4218H13.3868H13.352H13.3172H13.2824H13.2508H13.216H13.1812H13.1464H13.1114H13.0766H13.0417H13.0069H12.9719H12.9371H12.9023H12.8675H12.8327H12.7976H12.7628H12.728H12.6932H12.6582H12.6233H12.5885H12.5537H12.5187H12.4839H12.4491H12.4143H12.3793H12.3445H12.3096H12.2748H12.2433H12.2085H12.1737H12.1389H12.1039H12.069H12.0342H11.9994H11.9644H11.9296H11.8947H11.86H11.825H11.7901H11.7553V13.4495V13.4845V13.5195V13.5546V13.5896V13.6246V13.6596V13.6947V13.7296V13.7647V13.7997V13.8347V13.8697V13.9048V13.9398V13.9748V14.0098V14.0448V14.0763V14.1113V14.1464V14.1814V14.2164V14.2515V14.2865V14.3215V14.3565V14.3915V14.4265V14.4616V14.4966V14.5314V14.5664V14.6014V14.6364V14.6714V14.7065V14.7415V14.7765V14.8115V14.8465V14.8816V14.9166V14.9516V14.9866V15.0216V15.0566V15.0917V15.1267V15.1617V15.1968V15.2317V15.2667V15.3018V15.3333V15.3683V15.4033V15.4383V15.4734V15.5084V15.5434V15.5784V15.6134V15.6485V15.6835V15.7185V15.7535V15.7885V15.8236V15.8584V15.8934V15.9284V15.9635H11.7901H11.825H11.86H11.8947H11.9296H11.9644H11.9994H12.0342H12.069H12.1074H12.1422H12.1772H12.212H12.2468H12.2816H12.3166H12.3515H12.3863H12.4211H12.4561H12.4909H12.5257H12.5606H12.5956H12.6304H12.6652H12.7H12.735H12.7733H12.8081H12.8429H12.878H12.9128H12.9476H12.9824H13.0174H13.0523H13.0871H13.1219H13.1567H13.1917H13.2265H13.2614H13.2961H13.3312H13.366H13.4008H13.4356H13.4741H13.509H13.5437H13.5786H13.6136H13.6484H13.6832H13.718H13.753ZM11.2057 15.9635H11.2405V15.9284V15.8934V15.8584V15.8236V15.7885V15.7535V15.7185V15.6835V15.6485V15.6134V15.5784V15.5434V15.5084V15.4734V15.4383V15.4033V15.3683V15.3333V15.3018V15.2667V15.2317V15.1968V15.1617V15.1267V15.0917V15.0566V15.0216V14.9866V14.9516V14.9166V14.8816V14.8465V14.8115V14.7765V14.7415V14.7065V14.6714V14.6364V14.6014V14.5664V14.5314V14.4966V14.4616V14.4265V14.3915V14.3565V14.3215V14.2865V14.2515V14.2164V14.1814V14.1464V14.1113V14.0763V14.0448V14.0098V13.9748V13.9398V13.9048V13.8697V13.8347V13.7997V13.7647V13.7296V13.6947V13.6596V13.6246V13.5896V13.5546V13.5195V13.4845V13.4495V13.4145H11.2057H11.1709H11.1394H11.1046H11.0698H11.035H11.0035H10.9686H10.9338H10.899H10.8675H10.8327H10.7979H10.7631H10.7315H10.6967H10.6619H10.6271H10.5956H10.5608H10.526L10.5085 13.4425L10.4912 13.474L10.4701 13.5018L10.4526 13.5333L10.4353 13.5613L10.4178 13.5929L10.397 13.6207L10.3795 13.6522L10.362 13.6802L10.3447 13.7082L10.3237 13.7395L10.3064 13.7676L10.2889 13.7991L10.2714 13.8271L10.2506 13.8584L10.233 13.8864L10.2157 13.9144L10.1982 13.9458L10.1807 13.9737L10.1599 14.0053L10.1424 14.0333L10.1249 14.0646L10.1076 14.0926L10.0866 14.1241L10.0693 14.1519L10.0518 14.1799L10.0343 14.2115L10.0135 14.2395L9.99596 14.271L9.97861 14.2988L9.96115 14.3304L9.94034 14.3584L9.92284 14.3897L9.90533 14.4177L9.88803 14.3897L9.87053 14.3584L9.84949 14.3304L9.83217 14.2988L9.81468 14.271L9.79738 14.2395L9.77988 14.2115L9.75887 14.1799L9.74156 14.1519L9.72401 14.1241L9.70676 14.0926L9.68925 14.0646L9.66824 14.0333L9.65089 14.0053L9.63339 13.9737L9.61613 13.9458L9.5986 13.9144L9.57758 13.8864L9.56027 13.8584L9.54279 13.8271L9.52528 13.7991L9.50446 13.7676L9.48697 13.7395L9.46967 13.7082L9.45212 13.6802L9.43466 13.6522L9.4138 13.6207L9.3963 13.5929L9.379 13.5613L9.3615 13.5333L9.34396 13.5018L9.32318 13.474L9.30568 13.4425L9.28838 13.4145H9.25334H9.21854H9.18726H9.1524H9.11737H9.08257H9.05128H9.01648H8.98145H8.94664H8.91531H8.88051H8.84547H8.81067H8.77934H8.74435H8.7095H8.67474H8.64337H8.60838H8.57358V13.4495V13.4845V13.5195V13.5546V13.5896V13.6246V13.6596V13.6947V13.7296V13.7647V13.7997V13.8347V13.8697V13.9048V13.9398V13.9748V14.0098V14.0448V14.0763V14.1113V14.1464V14.1814V14.2164V14.2515V14.2865V14.3215V14.3565V14.3915V14.4265V14.4616V14.4966V14.5314V14.5664V14.6014V14.6364V14.6714V14.7065V14.7415V14.7765V14.8115V14.8465V14.8816V14.9166V14.9516V14.9866V15.0216V15.0566V15.0917V15.1267V15.1617V15.1968V15.2317V15.2667V15.3018V15.3333V15.3683V15.4033V15.4383V15.4734V15.5084V15.5434V15.5784V15.6134V15.6485V15.6835V15.7185V15.7535V15.7885V15.8236V15.8584V15.8934V15.9284V15.9635H8.60838H8.64337H8.67822H8.71306H8.74786H8.78287H8.81766H8.85251H8.88731H8.9223H8.95715H8.99196H9.02679H9.0618H9.09659H9.13139H9.16624H9.20123H9.23604V15.9284V15.8934V15.8584V15.8234V15.7881V15.7531V15.7181V15.6831V15.6481V15.6131V15.5815V15.5463V15.5113V15.4763V15.4412V15.4062V15.371V15.336V15.301V15.266V15.2309V15.1959V15.1607V15.1257V15.0906V15.0556V15.0206V14.9856V14.9504V14.9154V14.8803V14.8453V14.8138V14.7788V14.7436V14.7085V14.6735V14.6385V14.6035V14.5683V14.5332V14.4982V14.4632L9.25682 14.4912L9.2744 14.523L9.29518 14.5509L9.31267 14.5825L9.33369 14.6105L9.351 14.642L9.37201 14.6702L9.38931 14.7017L9.41032 14.7297L9.42783 14.7613L9.44864 14.7893L9.46614 14.821L9.48697 14.849L9.50446 14.8806L9.52528 14.9086L9.54279 14.9403L9.5638 14.9683L9.58458 14.9998L9.60211 15.0278L9.62289 15.0595L9.64043 15.0875L9.66144 15.1191L9.67871 15.1471L9.69972 15.1788L9.71703 15.2068L9.73804 15.2383L9.75558 15.2664L9.77635 15.2979L9.79385 15.3261L9.81468 15.3576L9.83217 15.3856L9.853 15.4171L9.87053 15.4454L9.89151 15.4769H9.90533L9.92284 15.4489L9.94365 15.4171L9.96115 15.3891L9.98216 15.3611L9.99947 15.3296L10.0204 15.3015L10.0378 15.2733L10.0553 15.2419L10.0763 15.2138L10.0936 15.1858L10.1146 15.1576L10.1319 15.1261L10.1529 15.0981L10.1704 15.07L10.1877 15.0383L10.2088 15.0103L10.226 14.9823L10.247 14.9508L10.2643 14.9227L10.2854 14.8945L10.3029 14.863L10.3202 14.835L10.3412 14.807L10.3585 14.7753L10.3795 14.7472L10.397 14.7192L10.4178 14.6912L10.4353 14.6595L10.4526 14.6315L10.4737 14.6035L10.4912 14.572L10.5119 14.5439L10.5295 14.5159L10.5503 14.4842L10.5678 14.4562V14.4912V14.5262V14.5612V14.5965V14.6315V14.6665V14.7015V14.7365V14.7718V14.8068V14.8418V14.8768V14.9118V14.9468V14.9821V15.0171V15.0521V15.0871V15.1222V15.1572V15.1924V15.2274V15.2625V15.2974V15.3324V15.3675V15.4027V15.4378V15.4728V15.5078V15.5428V15.578V15.6131V15.6481V15.6831V15.7181V15.7531V15.7881V15.8234V15.8584V15.8934V15.9284V15.9635H10.6026H10.6374H10.6724H10.7108H10.7456H10.7804H10.8154H10.8502H10.885H10.9233H10.9581H10.9932H11.028H11.0628H11.0976H11.1361H11.1709H11.2057ZM7.16069 14.9131L7.17468 14.9446H7.13988H7.10487H7.07007H7.03523H7.00043H6.96562H6.93059H6.89578H6.8645H6.82947H6.79462H6.75981H6.72502H6.69002H6.65518H6.62038H6.58557L6.59937 14.9131L6.60986 14.8814L6.62389 14.8463L6.63791 14.8148L6.64818 14.7831L6.66217 14.7516L6.67619 14.7165L6.69002 14.6848L6.70049 14.6533L6.71451 14.6218L6.72849 14.5901L6.7388 14.5551L6.75282 14.5235L6.76682 14.4918L6.77736 14.4603L6.79114 14.4288L6.80516 14.3936L6.81915 14.362L6.82947 14.3306L6.84349 14.2988L6.85751 14.2638L6.86798 14.2321L6.88176 14.2006L6.89578 14.2321L6.9063 14.2638L6.92007 14.2988L6.9341 14.3306L6.94461 14.362L6.95859 14.3936L6.97243 14.4288L6.98289 14.4603L6.99692 14.4918L7.01094 14.5235L7.02121 14.5551L7.03523 14.5901L7.04578 14.6218L7.05952 14.6533L7.07355 14.6848L7.08409 14.7165L7.09808 14.7516L7.11186 14.7831L7.12238 14.8148L7.1364 14.8463L7.15019 14.8814L7.16069 14.9131ZM8.25555 15.9635H8.29031L8.27634 15.9319L8.26231 15.9004L8.24855 15.8689L8.23801 15.8339L8.22398 15.8025L8.21001 15.7711L8.19618 15.7395L8.18219 15.708L8.16821 15.6765L8.15442 15.6415L8.1404 15.6099L8.12985 15.5784L8.11607 15.5469L8.10208 15.5154L8.08806 15.4839L8.07408 15.4489L8.06029 15.4174L8.04626 15.3858L8.03224 15.3543L8.02197 15.3228L8.00795 15.2913L7.99393 15.2562L7.9799 15.2248L7.96611 15.1932L7.95209 15.1617L7.93811 15.1302L7.92429 15.0987L7.91382 15.0636L7.8998 15.0322L7.88596 15.0006L7.87198 14.9691L7.85796 14.9376L7.84398 14.9061L7.83014 14.8711L7.81616 14.8395L7.80565 14.808L7.79187 14.7765L7.77785 14.745L7.76382 14.7135L7.74983 14.6785L7.73601 14.6469L7.72198 14.6154L7.70801 14.5839L7.69769 14.5524L7.6837 14.5209L7.66969 14.4896L7.6559 14.4545L7.64188 14.423L7.62785 14.3915L7.61388 14.36L7.60008 14.3285L7.58954 14.297L7.57555 14.2619L7.56177 14.2304L7.54774 14.1989L7.53375 14.1674L7.51973 14.1359L7.50591 14.1044L7.49193 14.0693L7.48141 14.0378L7.46762 14.0063L7.4536 13.9748L7.43962 13.9433L7.42583 13.9117L7.4118 13.8768L7.39778 13.8452L7.38376 13.8137L7.37349 13.7822L7.35947 13.7507L7.34544 13.7191L7.33167 13.6841L7.31764 13.6526L7.30365 13.6211L7.28963 13.5896L7.27585 13.5581L7.26534 13.5266L7.25136 13.4915L7.23752 13.46L7.2235 13.4285L7.20952 13.397H7.17468H7.14339H7.10835H7.07355H7.03874H7.00742H6.97243H6.93758H6.90282H6.87149H6.83646H6.80161H6.76682H6.73552H6.70049H6.66568H6.63087H6.59937H6.56456L6.55077 13.4285L6.53674 13.46L6.52277 13.4915L6.51222 13.5266L6.49843 13.5581L6.48444 13.5896L6.47041 13.6211L6.45663 13.6526L6.44261 13.6841L6.42859 13.7191L6.41457 13.7507L6.4043 13.7822L6.39027 13.8137L6.37625 13.8452L6.36246 13.8768L6.34843 13.9117L6.33446 13.9433L6.32062 13.9748L6.30664 14.0063L6.29613 14.0378L6.28215 14.0693L6.26833 14.1044L6.25433 14.1359L6.24031 14.1674L6.22649 14.1989L6.21251 14.2304L6.19849 14.2619L6.18797 14.297L6.17419 14.3285L6.16017 14.36L6.14618 14.3915L6.13235 14.423L6.11838 14.4545L6.10439 14.4896L6.09056 14.5209L6.08005 14.5524L6.06602 14.5839L6.05205 14.6154L6.03825 14.6469L6.02423 14.6785L6.01021 14.7135L5.99643 14.745L5.98241 14.7765L5.97189 14.808L5.95792 14.8395L5.94408 14.8711L5.9301 14.9061L5.91612 14.9376L5.90228 14.9691L5.88831 15.0006L5.87428 15.0322L5.86377 15.0636L5.84999 15.0987L5.83597 15.1302L5.82195 15.1617L5.80815 15.1932L5.79413 15.2248L5.78011 15.2562L5.76633 15.2913L5.75581 15.3228L5.74184 15.3543L5.72781 15.3858L5.71397 15.4174L5.7 15.4489L5.68597 15.4839L5.67218 15.5154L5.65816 15.5469L5.64769 15.5784L5.63367 15.6099L5.61989 15.6415L5.60587 15.6765L5.59184 15.708L5.57805 15.7395L5.56407 15.7711L5.55005 15.8025L5.53954 15.8339L5.52571 15.8689L5.51173 15.9004L5.49771 15.9319L5.48392 15.9635H5.51872H5.55356H5.58836H5.6234H5.66171H5.69652H5.73128H5.76633H5.80116H5.83597H5.87077H5.90576H5.94061H5.9754H6.01373H6.04854H6.08357H6.11838H6.15317H6.18797L6.202 15.9319L6.21251 15.9004L6.22649 15.8689L6.24031 15.8339L6.25082 15.8025L6.26485 15.7711L6.27864 15.7395L6.28914 15.708L6.30316 15.6765L6.31715 15.645L6.32745 15.6134L6.34145 15.5784L6.35547 15.5469L6.36597 15.5154L6.37976 15.4839H6.41457H6.4496H6.48444H6.51921H6.55077H6.58557H6.62038H6.65518H6.69002H6.72502H6.75981H6.79462H6.82947H6.8645H6.89578H6.93059H6.96562H7.00043H7.03523H7.07007H7.10487H7.13988H7.17468H7.20952H7.24104H7.27585H7.31064H7.34544H7.38025L7.39427 15.5154L7.40479 15.5469L7.41881 15.5784L7.43263 15.6134L7.4431 15.645L7.45712 15.6765L7.4711 15.708L7.48141 15.7395L7.49544 15.7711L7.50941 15.8025L7.51973 15.8339L7.53375 15.8689L7.54774 15.9004L7.55824 15.9319L7.57207 15.9635H7.60707H7.64188H7.6732H7.70801H7.743H7.77785H7.81265H7.84398H7.87897H7.91382H7.94861H7.98341H8.01845H8.04974H8.08458H8.11938H8.15442H8.18919H8.22055H8.25555ZM5.20131 15.6379L5.22562 15.617V15.5819V15.5469V15.5119V15.4804V15.4454V15.4104V15.3753V15.3403V15.3053V15.2738V15.2388V15.2037V15.1687V15.1337V15.0987V15.0636V15.0322V14.9971V14.9621V14.9271V14.8921V14.857V14.822V14.7905V14.7555V14.7205V14.6855V14.6504V14.6154V14.5839V14.5489V14.5139V14.4791H5.19077H5.15596H5.12097H5.08617H5.05133H5.01653H4.98149H4.94669H4.91188H4.87703H4.84204H4.80724H4.77243H4.73759H4.70259H4.66779H4.633H4.59814H4.56311H4.52831H4.4935H4.45871H4.42371H4.38887H4.35406H4.31926H4.28423H4.24942H4.21457H4.17981H4.14497H4.10997H4.07513V14.5139V14.5454V14.5804V14.6154V14.6504V14.682V14.717V14.752V14.787V14.8185V14.8536V14.8886V14.9236V14.9551V14.9901H4.10997H4.14145H4.1763H4.21111H4.24594H4.27742H4.31223H4.34703H4.38187H4.41339H4.4482H4.483H4.51784H4.54932H4.58417V15.0252V15.0602V15.0952V15.1302V15.1687V15.2037V15.2388V15.2738V15.3088L4.55632 15.3263L4.53183 15.3403L4.50053 15.3543L4.47253 15.3683L4.44116 15.3823L4.40988 15.3894L4.37508 15.3998L4.34004 15.4068L4.30524 15.4138L4.27043 15.4174L4.23212 15.4208L4.19356 15.4244H4.15176H4.11345L4.07513 15.4208L4.04033 15.4174L4.00552 15.4104L3.97049 15.4033L3.93568 15.3928L3.90085 15.3823L3.86937 15.3683L3.83807 15.3543L3.80672 15.3403L3.7787 15.3228L3.75093 15.3053L3.72311 15.2843L3.69508 15.2633L3.67082 15.2423L3.64977 15.2178L3.62547 15.1932L3.60446 15.1687L3.58363 15.1407L3.56613 15.1127L3.54865 15.0847L3.53134 15.0532L3.51735 15.0216L3.50333 14.9866L3.49301 14.9586L3.48251 14.9271L3.47552 14.8956L3.46849 14.864L3.4615 14.8326L3.45798 14.7975L3.4545 14.766L3.45122 14.731V14.696V14.689V14.6504L3.4545 14.6154L3.45798 14.5804L3.46501 14.5419L3.472 14.5104L3.47899 14.4755L3.4895 14.4405L3.50333 14.409L3.51384 14.3775L3.52782 14.346L3.54536 14.318L3.56262 14.2865L3.58012 14.2584L3.59746 14.2339L3.61848 14.2059L3.64278 14.1814L3.66379 14.1569L3.68808 14.1359L3.71262 14.1149L3.73691 14.0939L3.76495 14.0763L3.79272 14.0588L3.82072 14.0413L3.85207 14.0273L3.88339 14.0133L3.91467 14.0028L3.9462 13.9923L3.97752 13.9853L4.01233 13.9783L4.04384 13.9748L4.07864 13.9713H4.11345H4.15176L4.19028 13.9748L4.22859 13.9783L4.26344 13.9818L4.29825 13.9888L4.33305 13.9958L4.36456 14.0028L4.39586 14.0133L4.42719 14.0238L4.45518 14.0343L4.483 14.0483L4.511 14.0623L4.5423 14.0799L4.57014 14.0973L4.59814 14.1149L4.62596 14.1324L4.65376 14.1534L4.68178 14.1709L4.70958 14.1954L4.73759 14.2164L4.75841 14.1884L4.7829 14.1639L4.80376 14.1359L4.82825 14.1079L4.84903 14.0799L4.87004 14.0553L4.89438 14.0273L4.91536 13.9993L4.9397 13.9713L4.96071 13.9467L4.98149 13.9187L5.00601 13.8907L5.02684 13.8662L5.04785 13.8382L5.07214 13.8102L5.09315 13.7822L5.11745 13.7577L5.13847 13.7296L5.11066 13.7086L5.08266 13.6841L5.05484 13.6631L5.02684 13.6421L4.99902 13.6246L4.97121 13.6036L4.9397 13.5861L4.91188 13.5686L4.88058 13.5511L4.85255 13.5336L4.82126 13.5195L4.78993 13.502L4.75841 13.488L4.72713 13.474L4.6958 13.46L4.66428 13.4495L4.63646 13.439L4.60518 13.432L4.57365 13.4215L4.5423 13.4145L4.511 13.4075L4.47952 13.4005L4.44469 13.3935L4.40988 13.3865L4.37836 13.383L4.34004 13.376L4.30524 13.3725H4.27043L4.23212 13.369L4.19356 13.3655H4.15524H4.11696H4.08217H4.04384L4.0088 13.369L3.97397 13.3725L3.93921 13.376L3.90436 13.3795L3.86937 13.3865L3.83452 13.39L3.79971 13.397L3.76839 13.4075L3.7334 13.4145L3.7021 13.425L3.67082 13.432L3.63925 13.446L3.60446 13.4565L3.57664 13.467L3.54181 13.4845L3.51031 13.4985L3.47899 13.5126L3.44771 13.5301L3.41618 13.5476L3.38486 13.5651L3.35709 13.5826L3.32904 13.6001L3.30124 13.6211L3.27322 13.6386L3.24542 13.6596L3.22108 13.6806L3.19307 13.7052L3.16878 13.7261L3.14429 13.7507L3.11995 13.7752L3.09894 13.7997L3.07465 13.8242L3.05363 13.8487L3.03281 13.8768L3.0118 13.9048L2.99101 13.9328L2.97348 13.9608L2.95602 13.9888L2.93867 14.0168L2.92117 14.0448L2.90367 14.0763L2.88989 14.1079L2.87587 14.1394L2.86188 14.1709L2.84805 14.2024L2.83403 14.2374L2.82353 14.269L2.81302 14.304L2.80275 14.3355L2.79572 14.3705L2.7852 14.4055L2.77821 14.437L2.77473 14.4721L2.76775 14.5069L2.76419 14.5454L2.76091 14.5804V14.6154L2.75743 14.6539V14.689V14.696V14.731V14.7695L2.76091 14.8045L2.76419 14.8395L2.76775 14.8746L2.77118 14.9061L2.77821 14.9411L2.78174 14.9726L2.78873 15.0076L2.79922 15.0392L2.80623 15.0742L2.81653 15.1057L2.82353 15.1372L2.83755 15.1687L2.84805 15.1968L2.86188 15.2282L2.87587 15.2598L2.88989 15.2913L2.90367 15.3228L2.92117 15.3508L2.93867 15.3823L2.95602 15.4104L2.97348 15.4383L2.99429 15.4664L3.0118 15.4944L3.03281 15.5189L3.05363 15.5469L3.07465 15.5714L3.09894 15.5959L3.12347 15.6205L3.14777 15.6415L3.17229 15.666L3.19659 15.687L3.22108 15.708L3.24893 15.729L3.27673 15.75L3.30475 15.7711L3.33257 15.7885L3.36057 15.8061L3.39189 15.8236L3.41966 15.8409L3.45122 15.8584L3.48251 15.8724L3.51384 15.8864L3.54536 15.9004L3.58012 15.9144L3.61145 15.9249L3.64278 15.9389L3.6743 15.9494L3.70909 15.9564L3.74042 15.9669L3.77542 15.9739L3.80672 15.9809L3.84155 15.988L3.87636 15.9949L3.91139 15.9985L3.9462 16.002L3.981 16.0055L4.01932 16.009L4.05412 16.0124H4.08916H4.12743H4.16579H4.2041L4.24239 16.009L4.27742 16.0055L4.31573 16.002L4.35054 15.9985L4.38887 15.9949L4.42371 15.9914L4.45871 15.9844L4.4935 15.9774L4.52483 15.9705L4.55988 15.9635L4.59116 15.9529L4.62596 15.9424L4.65729 15.9319L4.68877 15.9214L4.72014 15.9109L4.75142 15.8969L4.78645 15.8829L4.81775 15.8689L4.85255 15.8549L4.88388 15.8373L4.91536 15.8236L4.94669 15.8061L4.97801 15.7885L5.00954 15.7711L5.03734 15.7535L5.06535 15.736L5.09315 15.715L5.12097 15.6975L5.14897 15.6765L5.17331 15.659L5.20131 15.6379ZM4.08006 7.64714H5.59103V6.47838H4.08006V4.09235H5.65118V2.92359H2.79698V11.3587H5.67509V10.1899H4.08006V7.64714ZM14.9027 7.90033V9.80428C14.9027 10.1417 14.7467 10.2983 14.4231 10.2983H14.1831C13.8474 10.2983 13.6914 10.1417 13.6914 9.80428V4.47796C13.6914 4.14055 13.8474 3.984 14.1831 3.984H14.399C14.7228 3.984 14.8788 4.14055 14.8788 4.47796V6.12899H16.1378V4.40565C16.1378 3.3574 15.6341 2.85125 14.591 2.85125H13.9673C12.9241 2.85125 12.4083 3.36935 12.4083 4.4178V9.86444C12.4083 10.9129 12.9241 11.431 13.9673 11.431H14.6029C15.6463 11.431 16.1619 10.9129 16.1619 9.86444V7.90033H14.9027ZM10.4469 11.3587H11.7302V2.92357H10.4469V11.3587ZM8.58492 6.67115C8.58492 7.0086 8.42919 7.16534 8.10538 7.16534H7.57764V4.05631H8.10538C8.42919 4.05631 8.58492 4.2129 8.58492 4.55026V6.67115ZM8.30911 2.92356H6.29451V11.3587H7.57764V8.29786H8.30911C9.35245 8.29786 9.86804 7.7798 9.86804 6.73154V4.49011C9.86804 3.44166 9.35245 2.92356 8.30911 2.92356ZM5.82402 18.9857L9.42021 20.2221L13.1694 18.9857H5.82402Z" fill="#FAFAFA"/>
</svg>
