<svg width="67" height="22" viewBox="0 0 67 22" fill="none" xmlns="http://www.w3.org/2000/svg">
<path fill-rule="evenodd" clip-rule="evenodd" d="M0 22V0H16.7391L14.975 4.78386H6.88669V9.24784H13.532L11.6718 14.0565H6.88669V22H0ZM19.1304 22L19.1425 0H25.8261V22H19.1304ZM52.7115 14.8125L55.356 5.65322L58.0955 14.8125H52.7115ZM59.0321 0H51.9038L44 22H50.6352L51.4892 19.0418H59.2239L60.1181 22H66.9565L59.0321 0ZM30.6087 22V0H47.3478L45.5717 4.78386H37.4863V9.24784H44.1349L42.2627 14.0565H37.4863V22H30.6087Z" fill="#FAFAFA"/>
</svg>
