<svg width="88" height="150" viewBox="0 0 88 150" fill="none" xmlns="http://www.w3.org/2000/svg">
<path fill-rule="evenodd" clip-rule="evenodd" d="M33.7429 74.9766V67.6398C33.7429 64.4788 36.3624 61.915 39.5943 61.915H44.2454C48.414 61.915 52.059 58.8448 52.3374 54.776C52.6431 50.3135 49.0195 46.5877 44.5228 46.5877H40.6443C36.8156 46.5877 33.7097 43.55 33.7097 39.8022H42.0498H44.095C52.0365 39.8022 58.8813 45.7621 59.2729 53.5232C59.691 61.8195 52.9136 68.7005 44.5228 68.7005H42.1767C37.6331 68.7005 33.7429 74.9766 33.7429 74.9766Z" fill="#FFB608"/>
<path fill-rule="evenodd" clip-rule="evenodd" d="M87.443 33.9999V41.2633C87.443 44.3927 84.8496 46.9309 81.6501 46.9309H77.0455C72.9186 46.9309 69.31 49.9704 69.0345 53.9985C68.7318 58.4164 72.3191 62.1049 76.7709 62.1049H80.6106C84.401 62.1049 87.4758 65.1123 87.4758 68.8225H79.2192H77.1944C69.3323 68.8225 62.556 62.9222 62.1683 55.2387C61.7544 47.0255 68.464 40.2133 76.7709 40.2133H79.0935C83.5917 40.2133 87.443 33.9999 87.443 33.9999Z" fill="#F75A00"/>
<path fill-rule="evenodd" clip-rule="evenodd" d="M77.1171 53.0118C77.1171 54.2111 76.1431 55.1833 74.9426 55.1833C73.7422 55.1833 72.7681 54.2111 72.7681 53.0118C72.7681 51.8115 73.7422 50.8394 74.9426 50.8394C76.1431 50.8394 77.1171 51.8115 77.1171 53.0118Z" fill="#FFB608"/>
<path fill-rule="evenodd" clip-rule="evenodd" d="M81.1037 57.7176C81.1037 58.9169 80.1297 59.8891 78.9292 59.8891C77.7287 59.8891 76.7547 58.9169 76.7547 57.7176C76.7547 56.5173 77.7287 55.5452 78.9292 55.5452C80.1297 55.5452 81.1037 56.5173 81.1037 57.7176Z" fill="#FFB608"/>
<path fill-rule="evenodd" clip-rule="evenodd" d="M42.6874 57.5659C42.6874 58.4718 43.4997 59.2065 44.4989 59.2065C45.4992 59.2065 46.3116 58.4718 46.3116 57.5659V56.3105H47.5685C48.4744 56.3105 49.2109 55.5 49.2109 54.5006C49.2109 53.5012 48.4744 52.6906 47.5685 52.6906H46.3116V51.4353C46.3116 50.5294 45.4992 49.7947 44.4989 49.7947C43.4997 49.7947 42.6874 50.5294 42.6874 51.4353V52.6906H41.4304C40.5235 52.6906 39.788 53.5012 39.788 54.5006C39.788 55.5 40.5235 56.3105 41.4304 56.3105H42.6874V57.5659Z" fill="#F75A00"/>
<path fill-rule="evenodd" clip-rule="evenodd" d="M0.74719 53.9269C0.410357 54.4943 0.241943 55.2914 0.241943 56.3182C0.241943 57.4801 0.410357 58.5744 0.74719 59.6012C3.10502 59.412 6.13647 59.3174 9.84163 59.3174H19.3247C21.1644 59.3174 22.9327 59.3512 24.6298 59.4188C26.3269 59.4863 27.2273 59.5201 27.3309 59.5201C28.5746 59.5201 29.1965 58.1691 29.1965 55.467C29.1965 54.7645 29.1576 53.9674 29.0799 53.0757C27.3698 53.2108 25.3747 53.2784 23.0946 53.2784C21.6178 53.2784 19.2211 53.3054 15.9046 53.3594C14.635 51.9814 14.0002 50.7249 14.0002 49.5901C14.0002 48.8875 14.2658 48.3134 14.7969 47.8675C15.3281 47.4217 16.1248 47.1988 17.1871 47.1988C17.7053 47.1988 19.2146 47.2393 21.7149 47.3204C24.2153 47.4014 25.9318 47.4419 26.8646 47.4419C28.4451 47.4419 29.2353 46.3611 29.2353 44.1995C29.2353 43.0106 29.0669 41.8352 28.7301 40.6733C27.1755 41.1327 25.2841 41.3623 23.0558 41.3623C22.123 41.3623 20.7498 41.3421 18.9361 41.3015C17.1224 41.261 16.1896 41.2407 16.1378 41.2407C14.2722 41.2407 12.8343 41.8352 11.8238 43.0241C10.8133 44.213 10.308 45.7261 10.308 47.5635C10.308 49.7252 11.0853 51.6571 12.6399 53.3594H10.9299C9.86754 53.3594 8.27408 53.3121 6.14944 53.2176C4.02481 53.123 2.88477 53.0757 2.72931 53.0757C1.74472 53.0757 1.08402 53.3594 0.74719 53.9269ZM25.8152 69.1259C25.8152 68.2882 25.6144 67.4979 25.2128 66.7548C24.8112 66.0118 24.2606 65.5051 23.561 65.2349C23.9756 64.019 24.3772 63.2219 24.7658 62.8436C25.1545 62.4653 25.6209 62.2762 26.165 62.2762C27.2273 62.2762 28.0499 62.9247 28.6329 64.2217C29.2159 65.5186 29.5074 67.2074 29.5074 69.288C29.5074 72.3143 28.6977 74.7461 27.0783 76.5835C25.4589 78.4209 23.1983 79.3396 20.2964 79.3396C18.5863 79.3396 17.0706 79.0356 15.7491 78.4277C14.4277 77.8197 13.3784 77.0294 12.6011 76.0566C11.8238 75.0839 11.2408 74.0301 10.8521 72.8952C10.4635 71.7604 10.2691 70.612 10.2691 69.4501C10.2691 67.7478 10.606 66.1199 11.2796 64.5662C11.9533 63.0125 12.8861 62.2357 14.0779 62.2357C15.6585 62.2357 16.6042 63.5596 16.9151 66.2077C16.0341 66.4509 15.3346 66.8832 14.8164 67.5046C14.2982 68.1261 14.0391 68.8151 14.0391 69.5717C14.0391 70.5715 14.5249 71.4361 15.4965 72.1657C16.4681 72.8952 17.8997 73.26 19.7911 73.26C23.8072 73.26 25.8152 71.882 25.8152 69.1259ZM19.4413 148.89L36.7363 149.012C37.5395 149.012 38.1095 148.877 38.4464 148.607C38.7832 148.336 38.9516 147.857 38.9516 147.168C38.9516 146.479 38.848 145.891 38.6407 145.405C38.1743 145.567 37.4165 145.742 36.3671 145.932C35.3177 146.121 32.5907 146.215 28.186 146.215C29.0669 144.783 29.5074 143.196 29.5074 141.453C29.5074 139.71 29.0021 138.163 27.9917 136.812C26.0743 134.245 23.0947 132.962 19.0527 132.962C16.2285 132.962 14.1233 133.617 12.7371 134.927C11.3509 136.238 10.6578 137.954 10.6578 140.075C10.6578 142.196 11.3962 144.283 12.8731 146.337C11.5776 146.337 10.9299 146.918 10.9299 148.08C10.9299 148.647 11.0335 149.174 11.2408 149.66C12.614 149.147 15.3475 148.89 19.4413 148.89ZM27.3309 141.271C27.3309 143.27 26.9423 144.891 26.165 146.134C24.4031 146.134 20.6721 146.161 14.9718 146.215C13.5468 144.459 12.8342 142.757 12.8342 141.108C12.8342 139.46 13.3848 138.17 14.486 137.238C15.5872 136.306 17.3037 135.839 19.6356 135.839C22.5376 135.839 24.714 136.61 26.165 138.15C26.9423 139.014 27.3309 140.055 27.3309 141.271ZM27.02 128.503L20.1409 128.422C16.4357 128.422 13.4043 128.517 11.0465 128.706C10.9687 128.274 10.9299 127.814 10.9299 127.328C10.9299 126.166 11.4221 125.585 12.4067 125.585C12.4586 125.585 12.6334 125.592 12.9314 125.605C13.2294 125.619 13.5079 125.626 13.767 125.626C12.9638 125.085 12.2448 124.362 11.61 123.457C10.9752 122.552 10.6578 121.721 10.6578 120.965C10.6578 119.506 11.163 118.776 12.1735 118.776C12.6658 118.776 13.2488 119.046 13.9225 119.587C13.4302 120.181 13.184 120.843 13.184 121.573C13.184 122.302 13.469 123.045 14.0391 123.802C14.6091 124.558 15.3605 125.193 16.2932 125.707C17.1742 125.734 19.0915 125.747 22.0453 125.747C24.9991 125.747 27.2921 125.491 28.9244 124.977C29.1317 125.464 29.2353 126.038 29.2353 126.7C29.2353 127.362 29.0669 127.828 28.7301 128.098C28.3933 128.368 27.8232 128.503 27.02 128.503ZM26.9423 101.348C25.2322 99.7266 22.9522 98.916 20.102 98.916C17.2519 98.916 14.9654 99.7266 13.2423 101.348C11.5193 102.969 10.6578 105.097 10.6578 107.731C10.6578 110.366 11.5193 112.494 13.2423 114.115C14.9654 115.736 17.2519 116.547 20.102 116.547C22.9522 116.547 25.2322 115.736 26.9423 114.115C28.6524 112.494 29.5074 110.366 29.5074 107.731C29.5074 105.097 28.6524 102.969 26.9423 101.348ZM27.3309 107.752C27.3309 105.86 26.7221 104.388 25.5043 103.334C24.2865 102.28 22.6153 101.753 20.4907 101.753C18.366 101.753 16.5588 102.294 15.069 103.374C13.5792 104.455 12.8342 105.928 12.8342 107.792C12.8342 109.657 13.4496 111.109 14.6803 112.149C15.9111 113.19 17.5887 113.71 19.7134 113.71C21.838 113.71 23.6387 113.183 25.1156 112.129C26.5925 111.075 27.3309 109.616 27.3309 107.752ZM13.5338 86.3514C14.0002 85.4327 14.6091 84.8248 15.3605 84.5275C15.0755 83.3116 14.4925 82.7037 13.6116 82.7037C12.7306 82.7037 12.0181 83.3116 11.474 84.5275C10.9299 85.7435 10.6578 87.108 10.6578 88.6212C10.6578 90.1343 11.1371 91.5866 12.0958 92.9782C13.0545 94.3698 14.2528 95.0655 15.6908 95.0655C17.1289 95.0655 18.2624 94.7075 19.0915 93.9915C19.9207 93.2754 20.4842 92.404 20.7822 91.3772C21.0801 90.3505 21.3392 89.3237 21.5595 88.2969C21.7797 87.2701 22.0971 86.3987 22.5117 85.6827C22.9262 84.9666 23.5869 84.6086 24.4938 84.6086C25.4006 84.6086 26.1002 84.9666 26.5925 85.6827C27.0848 86.3987 27.3309 87.3377 27.3309 88.4996C27.3309 89.6614 27.1107 90.7355 26.6702 91.7217C26.2298 92.708 25.595 93.3497 24.7658 93.647C25.1027 94.8629 25.6468 95.4708 26.3982 95.4708C27.2791 95.4708 28.0176 94.8291 28.6135 93.5456C29.2094 92.2622 29.5074 90.7355 29.5074 88.9657C29.5074 87.1958 29.0281 85.6219 28.0694 84.2438C27.1107 82.8658 25.7116 82.1768 23.8719 82.1768C22.6283 82.1768 21.6178 82.5348 20.8405 83.2508C20.0632 83.9669 19.5255 84.8383 19.2276 85.8651C18.9296 86.8918 18.664 87.9186 18.4308 88.9454C18.1976 89.9722 17.8608 90.8436 17.4203 91.5596C16.9799 92.2757 16.3451 92.6337 15.5159 92.6337C14.6868 92.6337 14.0326 92.2959 13.5533 91.6204C13.0739 90.9449 12.8342 90.1275 12.8342 89.1683C12.8342 88.2091 13.0674 87.2701 13.5338 86.3514ZM16.9151 33.9047C16.5005 36.2825 15.5289 37.4714 14.0002 37.4714C12.9638 37.4714 12.0829 36.6946 11.3574 35.1409C10.6319 33.5872 10.2691 31.716 10.2691 29.5274C10.2691 26.6902 10.7873 24.5961 11.8238 23.2451C12.8602 21.8941 14.5832 21.2186 16.9928 21.2186C17.2001 21.2186 17.9644 21.2321 19.2859 21.2591C20.6073 21.2861 21.5919 21.2996 22.2396 21.2996C25.2193 21.2996 27.4475 21.043 28.9244 20.5296C29.2353 21.7185 29.3908 22.7722 29.3908 23.6909C29.3908 25.6364 28.6394 26.7713 27.1366 27.0955C27.8621 27.744 28.4386 28.5749 28.8661 29.5882C29.2936 30.6014 29.5074 31.6215 29.5074 32.6482C29.5074 34.1344 29.0475 35.3841 28.1277 36.3973C27.2079 37.4106 25.8411 37.9172 24.0274 37.9172C22.5764 37.9172 21.5141 37.6133 20.8405 37.0053C20.1668 36.3973 19.6616 35.5665 19.3247 34.5126C18.7029 32.4591 18.3142 30.0273 18.1588 27.2171C16.5782 27.2171 15.4706 27.3995 14.8358 27.7643C14.201 28.1291 13.8836 28.8924 13.8836 30.0543C13.8836 30.7298 14.1557 31.4526 14.6998 32.2227C15.2439 32.9928 15.9823 33.5534 16.9151 33.9047ZM21.3068 29.1221C21.2032 28.6897 21.0866 28.0683 20.9571 27.2577C21.8898 27.3387 22.8226 27.3792 23.7554 27.3792C24.2995 27.3792 24.6881 27.3657 24.9213 27.3387C25.5691 28.0953 25.8929 29.041 25.8929 30.1759C25.8929 30.6622 25.731 31.0675 25.4071 31.3918C25.0832 31.716 24.5974 31.8782 23.9497 31.8782C23.4315 31.8782 22.9975 31.7768 22.6477 31.5742C22.2979 31.3715 22.0129 31.0203 21.7927 30.5204C21.5724 30.0205 21.4105 29.5544 21.3068 29.1221ZM0.241943 14.2068C0.241943 13.18 0.410357 12.3829 0.74719 11.8154C1.08402 11.248 1.74472 10.9643 2.72931 10.9643C2.88477 10.9643 4.02481 11.0116 6.14944 11.1062C8.27408 11.2007 9.86754 11.248 10.9299 11.248H21.5789C24.9991 11.248 27.3828 11.0183 28.7301 10.559C29.0669 11.6939 29.2353 12.8152 29.2353 13.923C29.2353 15.193 29.0216 16.0779 28.5941 16.5778C28.1665 17.0777 27.5382 17.3276 26.7091 17.3276C26.2945 17.3276 25.3877 17.3074 23.9885 17.2668C22.5894 17.2263 21.4494 17.206 20.5684 17.206H9.84163C6.13647 17.206 3.10502 17.3006 0.74719 17.4897C0.410357 16.463 0.241943 15.3687 0.241943 14.2068ZM0.74719 1.7233C0.410357 2.29073 0.241943 3.08783 0.241943 4.11461C0.241943 5.27649 0.410357 6.37082 0.74719 7.3976C3.10502 7.20845 6.13647 7.11388 9.84163 7.11388H20.5684C21.4494 7.11388 22.5894 7.13416 23.9885 7.17468C25.3877 7.21521 26.2945 7.23547 26.7091 7.23547C27.5382 7.23547 28.1665 6.98553 28.5941 6.48566C29.0216 5.98578 29.2353 5.10086 29.2353 3.8309C29.2353 2.72305 29.0669 1.60172 28.7301 0.466843C27.3828 0.926193 24.9991 1.15587 21.5789 1.15587H10.9299C9.86754 1.15587 8.27408 1.10858 6.14944 1.01401C4.02481 0.919434 2.88477 0.872147 2.72931 0.872147C1.74472 0.872147 1.08402 1.15587 0.74719 1.7233Z" fill="#FAFAFA"/>
</svg>
