<svg width="20" height="22" viewBox="0 0 20 22" fill="none" xmlns="http://www.w3.org/2000/svg">
<path d="M10 1.25478C9.91639 1.25478 9.8495 1.25478 9.78261 1.27151V0.367965C9.78261 0.0835167 9.48161 -0.0838062 9.23077 0.0500521L4.58194 2.74395C4.34783 2.87781 4.34783 3.22919 4.58194 3.37978L9.23077 6.07367C9.46488 6.20753 9.78261 6.04021 9.78261 5.75576V5.08647C9.8495 5.1032 9.93311 5.1032 10 5.1032C13.3946 5.1032 16.1538 7.86403 16.1538 11.2607C16.1538 14.6573 13.3946 17.4014 10 17.4014C6.60535 17.4014 3.84615 14.6406 3.84615 11.2439C3.84615 10.1731 2.99331 9.31974 1.92308 9.31974C0.852843 9.31974 0 10.1898 0 11.2439C0 16.7656 4.48161 21.2499 10 21.2499C15.5184 21.2499 20 16.7656 20 11.2439C20 5.73903 15.5184 1.25478 10 1.25478Z" fill="#C7C7C7"/>
</svg>
